{
  "$schema": "https://schema.management.azure.com/schemas/2019-04-01/deploymentTemplate.json#",
  "contentVersion": "1.0.0.0",
  "parameters": {
    "groupId": {
      "type": "String",
      "metadata": {
        "description": "the Open Raven GroupId"
      }
    },
    "oidcIssuer": {
      "type": "String",
      "metadata": {
        "description": "the OIDC \"iss\""
      }
    },
    "oidcSubject": {
      "type": "String",
      "metadata": {
        "description": "the OIDC \"sub\", usually of the form \"system:serviceaccount:{{NS}}:{{SAName}}\""
      }
    },
    "location": {
      "defaultValue": "[ resourceGroup().location ]",
      "type": "String",
      "metadata": {
        "description": "The Azure location of the new managed identity"
      }
    }
  },
  "variables": {
    "BuiltInRole_Reader_Id": "acdd72a7-3385-48ef-bd42-f606fba81ae7",
    "identityName": "[ format('orvn-{0}-cross-account', parameters('groupId')) ]"
  },
  "resources": [
    {
      "type": "Microsoft.ManagedIdentity/userAssignedIdentities",
      "apiVersion": "2023-01-31",
      "name": "[ variables('identityName') ]",
      "location": "[ parameters('location') ]",
      "tags": {
        "project": "openraven"
      }
    },
    {
      "type": "Microsoft.ManagedIdentity/userAssignedIdentities/federatedIdentityCredentials",
      "apiVersion": "2023-01-31",
      "name": "[ format('{0}/{1}', variables('identityName'), 'openraven-oidc') ]",
      "dependsOn": [
        "[ resourceId('Microsoft.ManagedIdentity/userAssignedIdentities', variables('identityName')) ]"
      ],
      "properties": {
        "issuer": "[ parameters('oidcIssuer') ]",
        "subject": "[ parameters('oidcSubject') ]",
        "audiences": [
          "api://AzureADTokenExchange"
        ]
      }
    }
  ],
  "outputs": {
    "AZURE_CLIENT_ID": {
      "type": "String",
      "value": "[ reference(resourceId('Microsoft.ManagedIdentity/userAssignedIdentities', variables('identityName') ), '2023-01-31').clientId ]",
      "metadata": {
        "description": "the Client Id of the created User Managed Identity"
      }
    },
    "AZURE_TENANT_ID": {
      "type": "String",
      "value": "[ tenant().tenantId ]",
      "metadata": {
        "description": "the Tenant Id but emitted here for convenience"
      }
    }
  }
}
